<?xml version="1.0" encoding="utf-8"?>
<!-- Generator: Adobe Illustrator 15.0.0, SVG Export Plug-In . SVG Version: 6.00 Build 0)  -->
<!DOCTYPE svg PUBLIC "-//W3C//DTD SVG 1.1//EN" "http://www.w3.org/Graphics/SVG/1.1/DTD/svg11.dtd">
<svg version="1.1" id="Layer_1" xmlns="http://www.w3.org/2000/svg" xmlns:xlink="http://www.w3.org/1999/xlink" x="0px" y="0px"
	 width="300px" height="300px" viewBox="0 0 300 300" enable-background="new 0 0 300 300" xml:space="preserve">
<g>
	<g>
		<g>
			<path fill="#FFFFFF" d="M62.215,85.048c-11.558,0-22.359,4.105-32.167,12.396c-8.823,7.453-14.6,16.348-17.338,26.54h-0.151
				l-0.609,3.041c-0.074,0.15-0.074,0.15-0.074,0.304l-6.466,32.394h0.077l-2.812,14.373h0.074l-1.142,6.084
				c-1.596,10.645,0.688,19.846,6.844,27.525c6.463,8.213,15.59,12.396,27.223,12.396c11.559,0,22.282-4.184,32.167-12.396
				c9.2-7.68,15.209-16.881,17.87-27.525c0.152-0.76,0.229-1.521,0.38-2.281l10.191-51.482h-0.077l0.458-2.433H96.51
				c1.293-10.192-1.067-19.087-6.998-26.54C82.975,89.154,73.848,85.048,62.215,85.048z"/>
		</g>
		<g>
			<path fill="#FFFFFF" d="M198.406,79.649c0.077-0.074,0.077-0.152,0.077-0.305c2.129-11.48,0-21.368-6.465-29.58
				c-6.615-8.211-15.739-12.396-27.297-12.318c-11.637-0.078-22.36,4.107-32.168,12.318c-9.659,8.212-15.741,18.1-18.021,29.58
				c-0.077,0.152-0.151,0.23-0.231,0.305l-13.155,66.919h0.077l-6.691,33.612c-1.597,10.645,0.686,19.846,6.843,27.525
				c6.618,8.213,15.667,12.396,27.301,12.396c11.635,0,22.282-4.184,32.169-12.396c9.202-7.68,15.056-16.881,17.79-27.525
				c0.154-0.76,0.229-1.521,0.307-2.281l13.459-67.072h-0.152L198.406,79.649z"/>
		</g>
		<g>
			<path fill="#FFFFFF" d="M293.155,14.1c-6.614-8.288-15.589-12.395-27.222-12.395c-11.636,0-22.354,4.107-32.244,12.395
				c-9.656,8.137-15.664,18.023-18.022,29.505c-0.074,0.151-0.074,0.229-0.151,0.303L188.674,180.18
				c-1.597,10.645,0.606,19.846,6.767,27.525c6.54,8.213,15.589,12.396,27.226,12.396c11.633,0,22.355-4.184,32.089-12.396
				c9.278-7.68,15.207-16.881,17.871-27.525c0.151-0.76,0.303-1.521,0.455-2.281l26.54-133.991c0-0.074,0-0.152,0.076-0.303
				C301.826,32.123,299.621,22.237,293.155,14.1z"/>
		</g>
	</g>
</g>
</svg>
