<?xml version="1.0" encoding="utf-8"?>
<!-- Generator: Adobe Illustrator 15.0.0, SVG Export Plug-In . SVG Version: 6.00 Build 0)  -->
<!DOCTYPE svg PUBLIC "-//W3C//DTD SVG 1.1//EN" "http://www.w3.org/Graphics/SVG/1.1/DTD/svg11.dtd">
<svg version="1.1" id="Layer_1" xmlns="http://www.w3.org/2000/svg" xmlns:xlink="http://www.w3.org/1999/xlink" x="0px" y="0px"
	 width="600px" height="212.113px" viewBox="0 0 600 212.113" enable-background="new 0 0 600 212.113" xml:space="preserve">
<rect x="314.371" y="3.152" fill="#43C0BB" width="275.361" height="155.703"/>
<path fill="#545554" d="M9.588,48.724H21.93v10.762h0.316c3.376-4.01,7.303-7.121,11.789-9.336
	c4.481-2.215,9.415-3.321,14.795-3.321c5.8,0,11.101,0.975,15.902,2.927c4.798,1.953,8.887,4.666,12.263,8.146
	c3.376,3.481,6.013,7.598,7.913,12.345c1.897,4.745,2.846,9.916,2.846,15.504c0,5.593-0.949,10.76-2.846,15.508
	c-1.899,4.747-4.511,8.861-7.833,12.343c-3.323,3.48-7.254,6.198-11.789,8.148c-4.535,1.949-9.389,2.928-14.558,2.928
	c-6.645,0-12.476-1.451-17.482-4.353c-5.013-2.899-8.679-6.46-10.999-10.681H21.93v49.21H9.588V48.724z M21.93,85.75
	c0,3.906,0.606,7.515,1.82,10.84c1.21,3.325,2.979,6.226,5.301,8.703c2.318,2.48,5.086,4.43,8.306,5.854
	c3.217,1.426,6.83,2.139,10.839,2.139c4.008,0,7.621-0.713,10.84-2.139c3.217-1.425,5.985-3.374,8.308-5.854
	c2.318-2.478,4.086-5.378,5.301-8.703c1.21-3.325,1.82-6.934,1.82-10.84c0-3.9-0.61-7.518-1.82-10.839
	c-1.215-3.322-2.983-6.225-5.301-8.703c-2.322-2.478-5.09-4.431-8.308-5.853c-3.219-1.426-6.832-2.139-10.84-2.139
	c-4.009,0-7.622,0.713-10.839,2.139c-3.219,1.421-5.987,3.375-8.306,5.853c-2.322,2.479-4.09,5.38-5.301,8.703
	C22.536,78.233,21.93,81.85,21.93,85.75z"/>
<path fill="#545554" d="M108.007,3.152h12.342v119.625h-12.342V3.152z"/>
<path fill="#545554" d="M209.43,105.213c0,3.379,0.104,6.544,0.318,9.495c0.21,2.955,0.318,5.645,0.318,8.068h-11.71
	c0-2.003-0.054-4.007-0.159-6.011c-0.104-2.005-0.156-4.062-0.156-6.173h-0.318c-0.846,1.794-2.032,3.537-3.561,5.222
	c-1.529,1.689-3.35,3.191-5.458,4.51c-2.112,1.321-4.485,2.374-7.121,3.166c-2.639,0.792-5.485,1.187-8.546,1.187
	c-4.853,0-9.046-0.738-12.579-2.215c-3.537-1.478-6.462-3.532-8.782-6.173c-2.322-2.637-4.035-5.827-5.143-9.572
	c-1.107-3.742-1.661-7.833-1.661-12.263v-45.73h12.34v44.464c0,6.225,1.372,11.13,4.116,14.714
	c2.741,3.589,7.014,5.384,12.815,5.384c4.009,0,7.464-0.688,10.366-2.06c2.899-1.371,5.272-3.324,7.12-5.854
	c1.844-2.53,3.215-5.54,4.113-9.021c0.896-3.48,1.345-7.331,1.345-11.55V48.724h12.34v56.489H209.43z"/>
<path fill="#545554" d="M232.849,66.288c0-3.374-0.107-6.54-0.317-9.495c-0.21-2.951-0.313-5.641-0.313-8.07h11.709
	c0,2.004,0.052,4.012,0.154,6.014c0.108,2.005,0.159,4.061,0.159,6.173h0.317c0.842-1.794,2.031-3.535,3.559-5.226
	c1.528-1.687,3.348-3.188,5.459-4.509c2.112-1.317,4.485-2.374,7.121-3.166c2.636-0.79,5.485-1.184,8.546-1.184
	c0.841,0,1.687,0.053,2.533,0.157c0.841,0.105,1.682,0.313,2.528,0.632l-0.79,12.5c-2.112-0.631-4.326-0.949-6.645-0.949
	c-7.597,0-13.108,2.453-16.534,7.356c-3.43,4.906-5.146,11.632-5.146,20.177v36.076h-12.341L232.849,66.288L232.849,66.288z"/>
<path fill="#545554" d="M286.804,19.768c0-2.426,0.872-4.533,2.614-6.33c1.738-1.792,3.876-2.688,6.408-2.688
	c2.528,0,4.666,0.896,6.408,2.688c1.738,1.797,2.608,3.904,2.608,6.33c0,2.641-0.845,4.803-2.53,6.487
	c-1.688,1.688-3.853,2.53-6.486,2.53c-2.639,0-4.803-0.842-6.49-2.53C287.649,24.571,286.804,22.408,286.804,19.768z
	 M289.654,48.724h12.34v74.054h-12.34V48.724z"/>
<g>
	<path fill="#FFFFFF" d="M387.977,109.645h-0.317c-2.322,4.221-5.987,7.78-10.996,10.681c-5.011,2.9-10.839,4.353-17.483,4.353
		c-5.172,0-10.021-0.979-14.56-2.928c-4.537-1.95-8.465-4.668-11.787-8.148c-3.321-3.48-5.937-7.596-7.833-12.343
		c-1.896-4.748-2.85-9.915-2.85-15.508c0-5.589,0.951-10.759,2.85-15.504c1.896-4.747,4.532-8.863,7.911-12.345
		c3.374-3.48,7.465-6.193,12.264-8.146c4.8-1.953,10.101-2.927,15.902-2.927c5.379,0,10.31,1.106,14.795,3.321
		c4.481,2.215,8.41,5.326,11.787,9.336h0.317V3.152h12.34v119.625h-12.34V109.645L387.977,109.645z M387.977,85.75
		c0-3.9-0.609-7.518-1.819-10.839c-1.216-3.322-2.983-6.225-5.302-8.703c-2.322-2.478-5.09-4.431-8.307-5.853
		c-3.219-1.426-6.833-2.139-10.842-2.139s-7.619,0.713-10.838,2.139c-3.221,1.421-5.988,3.375-8.307,5.853
		c-2.322,2.479-4.09,5.38-5.302,8.703c-1.214,3.321-1.819,6.938-1.819,10.839c0,3.906,0.605,7.515,1.819,10.84
		c1.212,3.325,2.979,6.226,5.302,8.703c2.317,2.48,5.086,4.43,8.307,5.854c3.219,1.426,6.829,2.139,10.838,2.139
		s7.623-0.713,10.842-2.139c3.217-1.425,5.983-3.374,8.307-5.854c2.317-2.478,4.086-5.378,5.302-8.703
		C387.366,93.265,387.977,89.656,387.977,85.75z"/>
	<path fill="#FFFFFF" d="M418.829,85.75c0-5.799,1.005-11.075,3.01-15.822c2-4.747,4.747-8.833,8.229-12.263
		c3.479-3.425,7.644-6.09,12.499-7.993c4.85-1.897,10.126-2.845,15.82-2.845c5.695,0,10.972,0.947,15.825,2.845
		c4.852,1.902,9.02,4.567,12.499,7.993c3.481,3.429,6.224,7.516,8.229,12.263c2,4.747,3.004,10.023,3.004,15.822
		c0,5.803-1.004,11.079-3.004,15.826c-2.007,4.748-4.748,8.833-8.229,12.263c-3.479,3.427-7.647,6.091-12.499,7.987
		c-4.854,1.901-10.13,2.851-15.825,2.851c-5.694,0-10.972-0.948-15.82-2.851c-4.855-1.896-9.02-4.562-12.499-7.987
		c-3.481-3.43-6.229-7.516-8.229-12.263C419.834,96.829,418.829,91.553,418.829,85.75z M432.123,85.75
		c0,3.906,0.604,7.515,1.82,10.84c1.209,3.325,2.979,6.226,5.301,8.703c2.317,2.48,5.086,4.43,8.306,5.854
		c3.215,1.426,6.829,2.139,10.838,2.139c4.01,0,7.619-0.713,10.838-2.139c3.221-1.425,5.988-3.374,8.311-5.854
		c2.317-2.478,4.087-5.378,5.301-8.703c1.211-3.325,1.82-6.934,1.82-10.84c0-3.9-0.609-7.518-1.82-10.839
		c-1.214-3.322-2.981-6.225-5.301-8.703c-2.321-2.478-5.09-4.431-8.311-5.853c-3.219-1.426-6.828-2.139-10.838-2.139
		c-4.009,0-7.623,0.713-10.838,2.139c-3.22,1.421-5.987,3.375-8.306,5.853c-2.322,2.479-4.092,5.38-5.301,8.703
		C432.729,78.233,432.123,81.85,432.123,85.75z"/>
	<path fill="#FFFFFF" d="M569.781,67.237c-2.635-3.163-5.484-5.458-8.541-6.88c-3.062-1.426-6.438-2.139-10.13-2.139
		c-4.112,0-7.751,0.713-10.915,2.139c-3.168,1.421-5.777,3.398-7.834,5.932c-2.057,2.532-3.614,5.46-4.669,8.781
		c-1.058,3.322-1.58,6.883-1.58,10.681s0.604,7.357,1.818,10.683c1.21,3.322,2.897,6.25,5.062,8.78
		c2.163,2.533,4.771,4.51,7.833,5.935c3.061,1.426,6.489,2.139,10.284,2.139c8.12,0,14.4-3.062,18.83-9.18l9.177,8.703
		c-3.587,4.113-7.809,7.121-12.658,9.019c-4.854,1.901-9.966,2.851-15.349,2.851c-5.696,0-10.915-0.948-15.662-2.851
		c-4.747-1.896-8.782-4.588-12.104-8.068c-3.322-3.481-5.91-7.594-7.756-12.341c-1.847-4.747-2.77-9.969-2.77-15.667
		c0-5.589,0.923-10.759,2.77-15.504c1.846-4.747,4.455-8.863,7.832-12.345c3.374-3.48,7.409-6.193,12.104-8.146
		c4.691-1.953,9.89-2.927,15.586-2.927c5.484,0,10.684,0.947,15.586,2.845c4.904,1.902,9.202,4.854,12.897,8.863L569.781,67.237z"/>
</g>
<g>
	<path fill="#545554" d="M22.352,195.5c-0.632-0.757-1.313-1.308-2.042-1.647c-0.733-0.34-1.542-0.513-2.427-0.513
		c-0.983,0-1.856,0.173-2.613,0.513c-0.755,0.341-1.381,0.816-1.874,1.42c-0.494,0.606-0.866,1.309-1.116,2.104
		c-0.253,0.794-0.38,1.646-0.38,2.558c0,0.908,0.145,1.76,0.436,2.557c0.291,0.794,0.692,1.492,1.21,2.101
		c0.518,0.606,1.145,1.079,1.876,1.422c0.731,0.337,1.551,0.511,2.46,0.511c1.945,0,3.446-0.733,4.508-2.196l2.195,2.084
		c-0.856,0.98-1.868,1.702-3.029,2.156c-1.162,0.456-2.385,0.681-3.674,0.681c-1.362,0-2.613-0.225-3.747-0.681
		c-1.138-0.454-2.103-1.099-2.897-1.93c-0.795-0.837-1.415-1.818-1.855-2.956c-0.443-1.138-0.662-2.385-0.662-3.747
		c0-1.342,0.218-2.576,0.662-3.715c0.44-1.134,1.067-2.119,1.875-2.952c0.806-0.832,1.77-1.48,2.895-1.951
		c1.122-0.464,2.368-0.698,3.73-0.698c1.313,0,2.559,0.227,3.732,0.682c1.176,0.453,2.2,1.162,3.084,2.119L22.352,195.5z"/>
	<path fill="#545554" d="M26.974,199.933c0-1.39,0.238-2.653,0.719-3.788c0.482-1.138,1.138-2.113,1.969-2.937
		c0.833-0.82,1.831-1.458,2.993-1.911c1.159-0.455,2.423-0.682,3.787-0.682c1.363,0,2.624,0.227,3.786,0.682
		c1.162,0.453,2.161,1.091,2.993,1.911c0.832,0.821,1.488,1.799,1.97,2.937c0.479,1.135,0.721,2.398,0.721,3.788
		c0,1.387-0.242,2.648-0.721,3.783c-0.482,1.138-1.138,2.118-1.97,2.937c-0.832,0.821-1.831,1.459-2.993,1.913
		c-1.162,0.456-2.423,0.681-3.786,0.681c-1.364,0-2.627-0.225-3.787-0.681c-1.162-0.454-2.16-1.092-2.993-1.913
		c-0.831-0.817-1.487-1.799-1.969-2.937C27.211,202.581,26.974,201.319,26.974,199.933z M30.154,199.933
		c0,0.935,0.146,1.796,0.436,2.591s0.711,1.493,1.27,2.084c0.555,0.596,1.218,1.062,1.987,1.403c0.77,0.337,1.633,0.511,2.594,0.511
		c0.96,0,1.822-0.174,2.592-0.511c0.771-0.343,1.434-0.809,1.988-1.403c0.555-0.591,0.98-1.289,1.27-2.084
		c0.289-0.795,0.435-1.656,0.435-2.591c0-0.936-0.146-1.801-0.435-2.596c-0.29-0.795-0.715-1.489-1.27-2.083
		c-0.555-0.592-1.217-1.062-1.988-1.401s-1.632-0.513-2.592-0.513c-0.961,0-1.825,0.173-2.594,0.513
		c-0.769,0.341-1.432,0.811-1.987,1.401c-0.559,0.594-0.98,1.288-1.27,2.083C30.301,198.132,30.154,198.997,30.154,199.933z"/>
	<path fill="#545554" d="M50.491,195.272c0-0.808-0.027-1.565-0.077-2.271c-0.051-0.706-0.076-1.351-0.076-1.932h2.802
		c0,0.481,0.014,0.961,0.04,1.439c0.024,0.479,0.037,0.974,0.037,1.475h0.076c0.201-0.428,0.485-0.845,0.852-1.247
		c0.366-0.403,0.8-0.764,1.307-1.079c0.504-0.316,1.073-0.568,1.703-0.758c0.633-0.19,1.312-0.283,2.046-0.283
		c1.16,0,2.164,0.177,3.009,0.53c0.847,0.354,1.547,0.844,2.103,1.477c0.557,0.632,0.967,1.396,1.232,2.29
		c0.265,0.896,0.396,1.877,0.396,2.938v10.943h-2.955V198.15c0-1.487-0.327-2.662-0.984-3.521c-0.656-0.856-1.678-1.288-3.064-1.288
		c-0.963,0-1.788,0.165-2.482,0.494c-0.695,0.329-1.265,0.794-1.704,1.4c-0.444,0.607-0.77,1.326-0.985,2.158
		c-0.213,0.835-0.323,1.757-0.323,2.765v8.636h-2.953V195.272z"/>
	<path fill="#545554" d="M86.277,205.649h-0.075c-0.557,1.012-1.434,1.862-2.633,2.559c-1.197,0.693-2.593,1.038-4.184,1.038
		c-1.239,0-2.397-0.231-3.485-0.699c-1.085-0.466-2.025-1.115-2.82-1.951c-0.795-0.831-1.42-1.818-1.874-2.952
		c-0.456-1.136-0.68-2.373-0.68-3.71c0-1.342,0.224-2.576,0.68-3.715c0.454-1.134,1.084-2.119,1.891-2.952
		c0.809-0.832,1.789-1.48,2.936-1.951c1.149-0.464,2.418-0.698,3.805-0.698c1.29,0,2.47,0.266,3.542,0.795
		c1.073,0.53,2.014,1.275,2.823,2.233h0.075v-13.482h2.953v28.632h-2.953L86.277,205.649L86.277,205.649z M86.277,199.933
		c0-0.936-0.146-1.801-0.435-2.596c-0.29-0.795-0.715-1.489-1.271-2.083c-0.555-0.592-1.218-1.062-1.987-1.401
		c-0.771-0.34-1.633-0.513-2.593-0.513c-0.96,0-1.822,0.173-2.593,0.513c-0.772,0.341-1.435,0.811-1.99,1.401
		c-0.557,0.594-0.978,1.288-1.27,2.083c-0.289,0.795-0.433,1.66-0.433,2.596c0,0.935,0.144,1.796,0.433,2.591
		c0.292,0.795,0.713,1.493,1.27,2.084c0.555,0.596,1.218,1.062,1.99,1.403c0.771,0.337,1.633,0.511,2.593,0.511
		c0.959,0,1.822-0.174,2.593-0.511c0.769-0.343,1.432-0.809,1.987-1.403c0.556-0.591,0.981-1.289,1.271-2.084
		C86.131,201.729,86.277,200.866,86.277,199.933z"/>
	<path fill="#545554" d="M94.304,184.14c0-0.582,0.209-1.088,0.626-1.516c0.417-0.429,0.929-0.645,1.536-0.645
		c0.604,0,1.115,0.216,1.531,0.645c0.416,0.428,0.626,0.934,0.626,1.516c0,0.63-0.204,1.147-0.607,1.551
		c-0.404,0.405-0.921,0.606-1.55,0.606c-0.63,0-1.149-0.201-1.553-0.606C94.508,185.287,94.304,184.77,94.304,184.14z
		 M94.986,191.069h2.956v17.725h-2.956V191.069z"/>
	<path fill="#545554" d="M111.877,208.793h-3.257l-7.234-17.725h3.446l5.528,13.899h0.077l5.264-13.899h3.18L111.877,208.793z"/>
	<path fill="#545554" d="M121.647,184.14c0-0.582,0.209-1.088,0.626-1.516c0.416-0.429,0.928-0.645,1.534-0.645
		c0.604,0,1.115,0.216,1.532,0.645c0.415,0.428,0.625,0.934,0.625,1.516c0,0.63-0.204,1.147-0.608,1.551
		c-0.403,0.405-0.92,0.606-1.549,0.606c-0.632,0-1.15-0.201-1.551-0.606C121.852,185.287,121.647,184.77,121.647,184.14z
		 M122.328,191.069h2.956v17.725h-2.956V191.069z"/>
	<path fill="#545554" d="M145.884,205.649h-0.075c-0.557,1.012-1.433,1.862-2.631,2.559c-1.2,0.693-2.595,1.038-4.185,1.038
		c-1.241,0-2.399-0.231-3.485-0.699c-1.086-0.466-2.025-1.115-2.82-1.951c-0.795-0.831-1.421-1.818-1.874-2.952
		c-0.457-1.136-0.683-2.373-0.683-3.71c0-1.342,0.226-2.576,0.683-3.715c0.453-1.134,1.083-2.119,1.891-2.952
		c0.809-0.832,1.789-1.48,2.934-1.951c1.151-0.464,2.421-0.698,3.807-0.698c1.289,0,2.467,0.266,3.542,0.795
		c1.072,0.53,2.01,1.275,2.822,2.233h0.075v-13.482h2.954v28.632h-2.954v-3.146H145.884z M145.884,199.933
		c0-0.936-0.145-1.801-0.435-2.596c-0.29-0.795-0.716-1.489-1.27-2.083c-0.554-0.592-1.218-1.062-1.988-1.401
		c-0.771-0.34-1.633-0.513-2.592-0.513c-0.961,0-1.825,0.173-2.596,0.513c-0.77,0.341-1.432,0.811-1.987,1.401
		c-0.557,0.594-0.979,1.288-1.271,2.083c-0.289,0.795-0.434,1.66-0.434,2.596c0,0.935,0.145,1.796,0.434,2.591
		c0.292,0.795,0.713,1.493,1.271,2.084c0.555,0.596,1.218,1.062,1.987,1.403c0.771,0.337,1.634,0.511,2.596,0.511
		c0.959,0,1.821-0.174,2.592-0.511c0.77-0.343,1.434-0.809,1.988-1.403c0.554-0.591,0.98-1.289,1.27-2.084
		S145.884,200.866,145.884,199.933z"/>
	<path fill="#545554" d="M170.122,205.575c-1.061,1.361-2.222,2.313-3.485,2.855c-1.264,0.543-2.728,0.813-4.393,0.813
		c-1.39,0-2.638-0.243-3.75-0.736c-1.11-0.492-2.049-1.155-2.821-1.987c-0.771-0.834-1.364-1.817-1.781-2.955
		c-0.417-1.136-0.622-2.349-0.622-3.634c0-1.366,0.225-2.619,0.681-3.77c0.452-1.149,1.086-2.134,1.893-2.955
		c0.807-0.82,1.765-1.458,2.879-1.911c1.108-0.455,2.323-0.683,3.635-0.683c1.236,0,2.373,0.208,3.409,0.627
		c1.033,0.414,1.924,1.021,2.669,1.814c0.745,0.796,1.32,1.77,1.722,2.918c0.404,1.148,0.608,2.454,0.608,3.917v0.949h-14.315
		c0.049,0.756,0.232,1.48,0.548,2.177c0.315,0.693,0.725,1.3,1.23,1.817c0.506,0.517,1.1,0.929,1.78,1.229
		c0.682,0.307,1.427,0.456,2.235,0.456c1.288,0,2.375-0.229,3.259-0.681c0.88-0.456,1.676-1.125,2.385-2.01L170.122,205.575z
		 M167.583,198.343c-0.05-1.518-0.543-2.728-1.478-3.637c-0.934-0.908-2.222-1.366-3.862-1.366c-1.642,0-2.966,0.458-3.976,1.366
		c-1.011,0.909-1.617,2.119-1.818,3.637H167.583z"/>
	<path fill="#545554" d="M175.347,195.272c0-0.808-0.026-1.565-0.073-2.271c-0.053-0.706-0.079-1.351-0.079-1.932h2.803
		c0,0.481,0.014,0.961,0.039,1.439c0.024,0.479,0.036,0.974,0.036,1.475h0.077c0.2-0.428,0.485-0.845,0.851-1.247
		c0.366-0.403,0.801-0.764,1.306-1.079c0.508-0.316,1.073-0.568,1.706-0.758c0.631-0.19,1.314-0.283,2.047-0.283
		c0.199,0,0.399,0.012,0.603,0.037c0.204,0.023,0.405,0.076,0.607,0.151l-0.19,2.993c-0.506-0.153-1.035-0.23-1.59-0.23
		c-1.818,0-3.137,0.591-3.958,1.764c-0.819,1.176-1.229,2.782-1.229,4.827v8.636h-2.956V195.272L175.347,195.272z"/>
	<path fill="#545554" d="M203.826,205.575c-1.061,1.361-2.222,2.313-3.485,2.855c-1.266,0.543-2.728,0.813-4.394,0.813
		c-1.388,0-2.637-0.243-3.749-0.736c-1.11-0.492-2.049-1.155-2.821-1.987c-0.771-0.834-1.365-1.817-1.781-2.955
		c-0.417-1.136-0.622-2.349-0.622-3.634c0-1.366,0.225-2.619,0.681-3.77c0.454-1.149,1.085-2.134,1.893-2.955
		c0.808-0.82,1.765-1.458,2.879-1.911c1.108-0.455,2.324-0.683,3.635-0.683c1.236,0,2.374,0.208,3.408,0.627
		c1.034,0.414,1.924,1.021,2.67,1.814c0.744,0.796,1.319,1.77,1.722,2.918c0.404,1.148,0.607,2.454,0.607,3.917v0.949h-14.314
		c0.049,0.756,0.231,1.48,0.547,2.177c0.316,0.693,0.725,1.3,1.231,1.817c0.506,0.517,1.1,0.929,1.782,1.229
		c0.68,0.307,1.425,0.456,2.232,0.456c1.29,0,2.375-0.229,3.259-0.681c0.881-0.456,1.676-1.125,2.384-2.01L203.826,205.575z
		 M201.286,198.343c-0.049-1.518-0.543-2.728-1.477-3.637c-0.933-0.908-2.222-1.366-3.862-1.366c-1.641,0-2.968,0.458-3.975,1.366
		c-1.011,0.909-1.617,2.119-1.818,3.637H201.286z"/>
	<path fill="#545554" d="M235.408,205.575c-1.059,1.361-2.222,2.313-3.485,2.855c-1.263,0.543-2.728,0.813-4.392,0.813
		c-1.39,0-2.637-0.243-3.75-0.736c-1.109-0.492-2.049-1.155-2.819-1.987c-0.772-0.834-1.365-1.817-1.781-2.955
		c-0.417-1.136-0.623-2.349-0.623-3.634c0-1.366,0.226-2.619,0.681-3.77c0.454-1.149,1.085-2.134,1.894-2.955
		c0.807-0.82,1.765-1.458,2.877-1.911c1.109-0.455,2.324-0.683,3.637-0.683c1.236,0,2.373,0.208,3.408,0.627
		c1.033,0.414,1.924,1.021,2.668,1.814c0.744,0.796,1.319,1.77,1.724,2.918c0.404,1.148,0.608,2.454,0.608,3.917v0.949h-14.316
		c0.048,0.756,0.231,1.48,0.549,2.177c0.314,0.693,0.723,1.3,1.229,1.817c0.506,0.517,1.1,0.929,1.78,1.229
		c0.682,0.307,1.427,0.456,2.235,0.456c1.288,0,2.373-0.229,3.258-0.681c0.882-0.456,1.677-1.125,2.384-2.01L235.408,205.575z
		 M232.869,198.343c-0.048-1.518-0.542-2.728-1.476-3.637c-0.934-0.908-2.222-1.366-3.862-1.366c-1.643,0-2.968,0.458-3.976,1.366
		c-1.011,0.909-1.618,2.119-1.818,3.637H232.869z"/>
	<path fill="#545554" d="M260.856,193.567h-5.226v8.863c0,0.579,0.013,1.116,0.039,1.609c0.024,0.493,0.123,0.922,0.302,1.288
		c0.177,0.362,0.44,0.655,0.795,0.868c0.355,0.217,0.857,0.324,1.513,0.324c0.433,0,0.875-0.052,1.33-0.149
		c0.453-0.104,0.881-0.252,1.286-0.456l0.113,2.688c-0.505,0.229-1.065,0.392-1.687,0.491c-0.616,0.101-1.204,0.15-1.758,0.15
		c-1.061,0-1.908-0.14-2.537-0.414c-0.632-0.277-1.125-0.671-1.478-1.177c-0.352-0.502-0.586-1.128-0.701-1.875
		c-0.113-0.74-0.17-1.57-0.17-2.479v-9.734h-3.864v-2.498h3.864v-5.035h2.954v5.035h5.226L260.856,193.567L260.856,193.567z"/>
	<path fill="#545554" d="M264.49,195.272c0-0.808-0.026-1.565-0.076-2.271c-0.051-0.706-0.076-1.351-0.076-1.932h2.802
		c0,0.481,0.013,0.961,0.04,1.439c0.025,0.479,0.036,0.974,0.036,1.475h0.079c0.199-0.428,0.483-0.845,0.849-1.247
		c0.368-0.403,0.802-0.764,1.307-1.079c0.507-0.316,1.075-0.568,1.706-0.758c0.631-0.19,1.312-0.283,2.047-0.283
		c0.199,0,0.399,0.012,0.603,0.037c0.205,0.023,0.405,0.076,0.607,0.151l-0.19,2.993c-0.507-0.153-1.037-0.23-1.59-0.23
		c-1.818,0-3.138,0.591-3.956,1.764c-0.822,1.176-1.231,2.782-1.231,4.827v8.636h-2.955v-13.521H264.49z"/>
	<path fill="#545554" d="M277.592,193.34c0.907-0.931,1.99-1.621,3.237-2.062c1.252-0.439,2.519-0.662,3.807-0.662
		c2.626,0,4.517,0.62,5.681,1.854c1.162,1.235,1.744,3.118,1.744,5.643v7.612c0,0.506,0.024,1.03,0.074,1.572
		c0.048,0.542,0.113,1.041,0.191,1.495h-2.841c-0.103-0.405-0.158-0.853-0.17-1.344c-0.016-0.493-0.019-0.929-0.019-1.308h-0.077
		c-0.582,0.91-1.355,1.651-2.331,2.233c-0.97,0.58-2.138,0.869-3.5,0.869c-0.91,0-1.764-0.111-2.559-0.34
		c-0.795-0.228-1.487-0.561-2.084-1.005c-0.591-0.439-1.064-0.988-1.417-1.646c-0.354-0.654-0.528-1.413-0.528-2.273
		c0-1.463,0.375-2.608,1.132-3.444c0.759-0.833,1.7-1.452,2.824-1.854c1.123-0.405,2.334-0.658,3.633-0.76
		c1.301-0.098,2.494-0.15,3.578-0.15h1.138v-0.53c0-1.286-0.386-2.259-1.157-2.914c-0.771-0.657-1.849-0.987-3.235-0.987
		c-0.962,0-1.901,0.161-2.823,0.475c-0.921,0.318-1.736,0.803-2.442,1.458L277.592,193.34z M286.151,200.272
		c-1.894,0-3.396,0.265-4.507,0.793c-1.111,0.531-1.664,1.403-1.664,2.614c0,1.112,0.368,1.902,1.115,2.367
		c0.745,0.469,1.672,0.7,2.783,0.7c0.86,0,1.612-0.146,2.256-0.436c0.64-0.29,1.178-0.676,1.61-1.153
		c0.429-0.479,0.757-1.044,0.983-1.687c0.226-0.644,0.353-1.331,0.379-2.063v-1.137L286.151,200.272L286.151,200.272z"/>
	<path fill="#545554" d="M297.85,204.136c0.583,0.729,1.219,1.312,1.915,1.741c0.693,0.428,1.572,0.645,2.631,0.645
		c0.451,0,0.914-0.052,1.381-0.149c0.468-0.104,0.892-0.268,1.27-0.494c0.379-0.229,0.682-0.511,0.909-0.854
		c0.229-0.339,0.34-0.748,0.34-1.229c0-0.479-0.108-0.873-0.321-1.175c-0.217-0.302-0.498-0.562-0.854-0.776
		c-0.352-0.213-0.754-0.385-1.213-0.512c-0.452-0.126-0.922-0.236-1.396-0.339c-0.835-0.18-1.632-0.38-2.391-0.606
		c-0.753-0.229-1.415-0.524-1.987-0.892c-0.566-0.363-1.019-0.838-1.361-1.421c-0.343-0.578-0.511-1.324-0.511-2.23
		c0-0.859,0.191-1.618,0.566-2.275c0.379-0.655,0.885-1.197,1.517-1.626c0.632-0.429,1.338-0.759,2.122-0.986
		c0.78-0.226,1.586-0.339,2.42-0.339c1.266,0,2.434,0.254,3.504,0.759c1.072,0.502,1.914,1.324,2.52,2.46l-2.459,1.63
		c-0.381-0.632-0.878-1.145-1.499-1.535c-0.618-0.39-1.368-0.589-2.253-0.589c-0.403,0-0.812,0.054-1.229,0.154
		c-0.418,0.1-0.791,0.253-1.121,0.453c-0.327,0.203-0.598,0.463-0.813,0.776c-0.216,0.316-0.321,0.675-0.321,1.079
		c0,0.379,0.118,0.702,0.357,0.966c0.242,0.268,0.571,0.498,0.987,0.7c0.416,0.203,0.895,0.38,1.438,0.53
		c0.542,0.149,1.104,0.276,1.687,0.378c0.778,0.15,1.524,0.349,2.233,0.587c0.706,0.239,1.325,0.562,1.856,0.968
		c0.529,0.403,0.945,0.908,1.246,1.515c0.305,0.604,0.457,1.35,0.457,2.232c0,1.012-0.203,1.868-0.606,2.575
		s-0.94,1.284-1.608,1.725c-0.668,0.441-1.427,0.765-2.274,0.965c-0.845,0.204-1.712,0.302-2.593,0.302
		c-1.517,0-2.823-0.231-3.919-0.699c-1.097-0.466-2.088-1.331-2.975-2.596L297.85,204.136z"/>
	<path fill="#545554" d="M315.122,193.567h-3.866v-2.498h3.866v-3.975c0-1.087,0.099-2.079,0.302-2.975
		c0.203-0.896,0.549-1.672,1.041-2.327c0.492-0.656,1.143-1.169,1.952-1.536c0.808-0.366,1.804-0.548,2.992-0.548
		c0.378,0,0.778,0.036,1.211,0.115c0.428,0.071,0.782,0.186,1.062,0.337l-0.418,2.649c-0.707-0.248-1.377-0.375-2.009-0.375
		c-0.754,0-1.353,0.132-1.778,0.397c-0.429,0.265-0.752,0.63-0.963,1.098c-0.217,0.467-0.343,1.029-0.381,1.686
		c-0.04,0.655-0.059,1.362-0.059,2.12v3.332h4.318v2.498h-4.318v15.227h-2.952V193.567z"/>
	<path fill="#545554" d="M341.367,205.575c-1.061,1.361-2.223,2.313-3.485,2.855c-1.265,0.543-2.728,0.813-4.392,0.813
		c-1.391,0-2.639-0.243-3.751-0.736c-1.109-0.492-2.05-1.155-2.82-1.987c-0.771-0.834-1.364-1.817-1.78-2.955
		c-0.416-1.136-0.623-2.349-0.623-3.634c0-1.366,0.225-2.619,0.68-3.77c0.455-1.149,1.087-2.134,1.895-2.955
		c0.809-0.82,1.766-1.458,2.878-1.911c1.11-0.455,2.324-0.683,3.638-0.683c1.235,0,2.371,0.208,3.408,0.627
		c1.033,0.414,1.922,1.021,2.668,1.814c0.744,0.796,1.319,1.77,1.725,2.918c0.404,1.148,0.604,2.454,0.604,3.917v0.949h-14.313
		c0.05,0.756,0.232,1.48,0.55,2.177c0.313,0.693,0.724,1.3,1.229,1.817c0.506,0.517,1.101,0.929,1.781,1.229
		c0.682,0.307,1.428,0.456,2.234,0.456c1.287,0,2.373-0.229,3.258-0.681c0.88-0.456,1.677-1.125,2.384-2.01L341.367,205.575z
		 M338.827,198.343c-0.05-1.518-0.542-2.728-1.476-3.637c-0.937-0.908-2.223-1.366-3.861-1.366c-1.643,0-2.969,0.458-3.977,1.366
		c-1.012,0.909-1.617,2.119-1.818,3.637H338.827z"/>
	<path fill="#545554" d="M346.591,195.272c0-0.808-0.024-1.565-0.073-2.271c-0.053-0.706-0.076-1.351-0.076-1.932h2.802
		c0,0.481,0.014,0.961,0.039,1.439c0.022,0.479,0.038,0.974,0.038,1.475h0.076c0.197-0.428,0.482-0.845,0.851-1.247
		c0.366-0.403,0.801-0.764,1.308-1.079c0.506-0.316,1.072-0.568,1.704-0.758c0.632-0.19,1.312-0.283,2.048-0.283
		c0.198,0,0.398,0.012,0.603,0.037c0.204,0.023,0.403,0.076,0.606,0.151l-0.189,2.993c-0.506-0.153-1.037-0.23-1.592-0.23
		c-1.817,0-3.137,0.591-3.957,1.764c-0.818,1.176-1.229,2.782-1.229,4.827v8.636h-2.957L346.591,195.272L346.591,195.272z"/>
	<path fill="#545554" d="M359.504,184.14c0-0.582,0.209-1.088,0.625-1.516c0.416-0.429,0.93-0.645,1.535-0.645
		s1.115,0.216,1.531,0.645c0.416,0.428,0.625,0.934,0.625,1.516c0,0.63-0.203,1.147-0.605,1.551
		c-0.402,0.405-0.921,0.606-1.551,0.606c-0.632,0-1.148-0.201-1.553-0.606C359.708,185.287,359.504,184.77,359.504,184.14z
		 M360.186,191.069h2.955v17.725h-2.955V191.069z"/>
	<path fill="#545554" d="M369.009,195.272c0-0.808-0.024-1.565-0.073-2.271c-0.053-0.706-0.078-1.351-0.078-1.932h2.803
		c0,0.481,0.015,0.961,0.038,1.439c0.026,0.479,0.038,0.974,0.038,1.475h0.078c0.201-0.428,0.482-0.845,0.851-1.247
		c0.366-0.403,0.801-0.764,1.306-1.079c0.506-0.316,1.073-0.568,1.705-0.758c0.631-0.19,1.312-0.283,2.047-0.283
		c0.2,0,0.4,0.012,0.604,0.037c0.202,0.023,0.401,0.076,0.606,0.151l-0.191,2.993c-0.506-0.153-1.036-0.23-1.592-0.23
		c-1.816,0-3.137,0.591-3.955,1.764c-0.82,1.176-1.23,2.782-1.23,4.827v8.636h-2.955L369.009,195.272L369.009,195.272z"/>
	<path fill="#545554" d="M397.486,205.575c-1.06,1.361-2.221,2.313-3.483,2.855c-1.265,0.543-2.728,0.813-4.394,0.813
		c-1.39,0-2.639-0.243-3.75-0.736c-1.108-0.492-2.051-1.155-2.818-1.987c-0.771-0.834-1.366-1.817-1.782-2.955
		c-0.416-1.136-0.62-2.349-0.62-3.634c0-1.366,0.223-2.619,0.68-3.77c0.455-1.149,1.084-2.134,1.893-2.955
		c0.809-0.82,1.766-1.458,2.878-1.911c1.11-0.455,2.323-0.683,3.638-0.683c1.235,0,2.373,0.208,3.407,0.627
		c1.033,0.414,1.925,1.021,2.67,1.814c0.742,0.796,1.32,1.77,1.722,2.918c0.406,1.148,0.608,2.454,0.608,3.917v0.949h-14.315
		c0.05,0.756,0.23,1.48,0.55,2.177c0.313,0.693,0.724,1.3,1.229,1.817c0.504,0.517,1.1,0.929,1.779,1.229
		c0.684,0.307,1.428,0.456,2.234,0.456c1.289,0,2.375-0.229,3.257-0.681c0.883-0.456,1.679-1.125,2.388-2.01L397.486,205.575z
		 M394.949,198.343c-0.051-1.518-0.542-2.728-1.477-3.637c-0.935-0.908-2.224-1.366-3.863-1.366c-1.642,0-2.967,0.458-3.975,1.366
		c-1.011,0.909-1.617,2.119-1.818,3.637H394.949z"/>
	<path fill="#545554" d="M427.971,205.649h-0.073c-0.559,1.012-1.433,1.862-2.632,2.559c-1.196,0.693-2.596,1.038-4.186,1.038
		c-1.239,0-2.398-0.231-3.484-0.699c-1.086-0.466-2.027-1.115-2.82-1.951c-0.795-0.831-1.42-1.818-1.873-2.952
		c-0.459-1.136-0.68-2.373-0.68-3.71c0-1.342,0.221-2.576,0.68-3.715c0.453-1.134,1.084-2.119,1.892-2.952
		c0.808-0.832,1.787-1.48,2.935-1.951c1.147-0.464,2.42-0.698,3.807-0.698c1.289,0,2.469,0.266,3.542,0.795
		c1.072,0.53,2.011,1.275,2.821,2.233h0.073v-13.482h2.956v28.632h-2.956L427.971,205.649L427.971,205.649z M427.971,199.933
		c0-0.936-0.144-1.801-0.434-2.596c-0.289-0.795-0.717-1.489-1.271-2.083c-0.555-0.592-1.218-1.062-1.988-1.401
		s-1.632-0.513-2.594-0.513c-0.958,0-1.821,0.173-2.594,0.513c-0.771,0.341-1.433,0.811-1.985,1.401
		c-0.561,0.594-0.981,1.288-1.271,2.083s-0.434,1.66-0.434,2.596c0,0.935,0.144,1.796,0.434,2.591
		c0.289,0.795,0.711,1.493,1.271,2.084c0.554,0.596,1.215,1.062,1.985,1.403c0.771,0.337,1.636,0.511,2.594,0.511
		c0.962,0,1.823-0.174,2.594-0.511c0.771-0.343,1.435-0.809,1.988-1.403c0.554-0.591,0.98-1.289,1.271-2.084
		S427.971,200.866,427.971,199.933z"/>
	<path fill="#545554" d="M435.357,199.933c0-1.39,0.237-2.653,0.718-3.788c0.482-1.138,1.138-2.113,1.972-2.937
		c0.831-0.82,1.83-1.458,2.993-1.911c1.156-0.455,2.42-0.682,3.786-0.682c1.361,0,2.623,0.227,3.785,0.682
		c1.161,0.453,2.157,1.091,2.99,1.911c0.833,0.821,1.488,1.799,1.972,2.937c0.479,1.135,0.72,2.398,0.72,3.788
		c0,1.387-0.24,2.648-0.72,3.783c-0.482,1.138-1.139,2.118-1.972,2.937c-0.833,0.821-1.829,1.459-2.99,1.913
		c-1.162,0.456-2.424,0.681-3.785,0.681c-1.366,0-2.63-0.225-3.786-0.681c-1.163-0.454-2.162-1.092-2.993-1.913
		c-0.834-0.817-1.488-1.799-1.972-2.937C435.596,202.581,435.357,201.319,435.357,199.933z M438.539,199.933
		c0,0.935,0.144,1.796,0.436,2.591c0.288,0.795,0.711,1.493,1.269,2.084c0.556,0.596,1.219,1.062,1.988,1.403
		c0.771,0.337,1.635,0.511,2.596,0.511c0.958,0,1.821-0.174,2.592-0.511c0.771-0.343,1.433-0.809,1.988-1.403
		c0.555-0.591,0.979-1.289,1.27-2.084s0.435-1.656,0.435-2.591c0-0.936-0.145-1.801-0.435-2.596
		c-0.289-0.795-0.715-1.489-1.27-2.083c-0.557-0.592-1.219-1.062-1.988-1.401c-0.771-0.34-1.634-0.513-2.592-0.513
		c-0.961,0-1.825,0.173-2.596,0.513c-0.771,0.341-1.434,0.811-1.988,1.401c-0.558,0.594-0.979,1.288-1.269,2.083
		C438.683,198.132,438.539,198.997,438.539,199.933z"/>
	<path fill="#545554" d="M471.484,195.5c-0.633-0.757-1.312-1.308-2.043-1.647c-0.734-0.34-1.542-0.513-2.426-0.513
		c-0.982,0-1.856,0.173-2.614,0.513c-0.753,0.341-1.382,0.816-1.874,1.42c-0.491,0.606-0.865,1.309-1.114,2.104
		c-0.253,0.794-0.379,1.646-0.379,2.558c0,0.908,0.145,1.76,0.434,2.557c0.29,0.794,0.695,1.492,1.212,2.101
		c0.519,0.606,1.145,1.079,1.877,1.422c0.729,0.337,1.549,0.511,2.46,0.511c1.943,0,3.444-0.733,4.508-2.196l2.195,2.084
		c-0.855,0.98-1.866,1.702-3.029,2.156c-1.161,0.456-2.387,0.681-3.674,0.681c-1.363,0-2.614-0.225-3.749-0.681
		c-1.138-0.454-2.102-1.099-2.896-1.93c-0.795-0.837-1.416-1.818-1.856-2.956c-0.442-1.138-0.661-2.385-0.661-3.747
		c0-1.342,0.219-2.576,0.661-3.715c0.44-1.134,1.066-2.119,1.873-2.952c0.809-0.832,1.774-1.48,2.897-1.951
		c1.123-0.464,2.366-0.698,3.729-0.698c1.312,0,2.557,0.227,3.732,0.682c1.174,0.453,2.2,1.162,3.084,2.119L471.484,195.5z"/>
	<path fill="#545554" d="M492.58,204.589c0,0.809,0.025,1.564,0.073,2.271c0.053,0.709,0.079,1.354,0.079,1.934h-2.804
		c0-0.481-0.016-0.959-0.04-1.439c-0.024-0.478-0.036-0.971-0.036-1.477h-0.075c-0.201,0.428-0.486,0.845-0.853,1.249
		c-0.367,0.402-0.804,0.764-1.309,1.081c-0.505,0.312-1.07,0.565-1.705,0.756c-0.63,0.188-1.312,0.282-2.042,0.282
		c-1.161,0-2.166-0.176-3.011-0.529c-0.849-0.353-1.548-0.845-2.104-1.479c-0.557-0.628-0.966-1.393-1.232-2.287
		c-0.265-0.897-0.396-1.875-0.396-2.938v-10.943h2.956v10.642c0,1.492,0.325,2.666,0.982,3.521c0.654,0.86,1.68,1.289,3.067,1.289
		c0.959,0,1.785-0.163,2.479-0.492c0.696-0.328,1.263-0.797,1.705-1.402c0.443-0.604,0.77-1.324,0.984-2.157
		c0.213-0.833,0.321-1.753,0.321-2.766v-8.635h2.955v13.521H492.58z"/>
	<path fill="#545554" d="M498.183,195.272c0-0.808-0.023-1.565-0.072-2.271c-0.053-0.706-0.078-1.351-0.078-1.932h2.802
		c0,0.481,0.015,0.961,0.042,1.439c0.023,0.479,0.035,0.974,0.035,1.475h0.077c0.201-0.428,0.482-0.845,0.85-1.247
		c0.367-0.403,0.803-0.764,1.309-1.079c0.505-0.316,1.071-0.568,1.704-0.758c0.632-0.19,1.312-0.283,2.047-0.283
		c0.956,0,1.761,0.119,2.402,0.356c0.646,0.24,1.183,0.534,1.609,0.872c0.429,0.344,0.765,0.71,1.005,1.097
		c0.236,0.396,0.435,0.741,0.585,1.042c0.656-1.058,1.415-1.887,2.272-2.477c0.858-0.595,1.969-0.893,3.334-0.893
		c1.262,0,2.319,0.171,3.181,0.514c0.855,0.339,1.553,0.832,2.083,1.476s0.909,1.427,1.135,2.35
		c0.227,0.922,0.342,1.948,0.342,3.084v10.757h-2.953v-10.604c0-0.604-0.064-1.198-0.191-1.777c-0.125-0.583-0.354-1.102-0.68-1.556
		c-0.33-0.452-0.771-0.817-1.325-1.097c-0.556-0.276-1.265-0.419-2.121-0.419c-0.63,0-1.227,0.13-1.78,0.38
		c-0.555,0.252-1.041,0.607-1.457,1.06c-0.417,0.456-0.748,1.007-0.984,1.65c-0.238,0.642-0.359,1.354-0.359,2.137v10.228h-2.956
		v-10.035c0-1.969-0.265-3.365-0.795-4.185c-0.528-0.821-1.399-1.233-2.608-1.233c-0.963,0-1.789,0.165-2.482,0.494
		c-0.697,0.329-1.263,0.794-1.703,1.4c-0.443,0.607-0.771,1.326-0.986,2.158c-0.213,0.835-0.321,1.757-0.321,2.765v8.636h-2.954
		v-13.522H498.183z"/>
	<path fill="#545554" d="M546.279,205.575c-1.062,1.361-2.224,2.313-3.488,2.855c-1.26,0.543-2.725,0.813-4.389,0.813
		c-1.393,0-2.64-0.243-3.751-0.736c-1.11-0.492-2.052-1.155-2.821-1.987c-0.771-0.834-1.364-1.817-1.781-2.955
		c-0.416-1.136-0.622-2.349-0.622-3.634c0-1.366,0.226-2.619,0.682-3.77c0.454-1.149,1.087-2.134,1.894-2.955
		c0.807-0.82,1.766-1.458,2.878-1.911c1.108-0.455,2.323-0.683,3.636-0.683c1.238,0,2.373,0.208,3.411,0.627
		c1.03,0.414,1.922,1.021,2.666,1.814c0.742,0.796,1.32,1.77,1.724,2.918s0.607,2.454,0.607,3.917v0.949h-14.314
		c0.049,0.756,0.229,1.48,0.548,2.177c0.314,0.693,0.725,1.3,1.229,1.817c0.507,0.517,1.102,0.929,1.783,1.229
		c0.68,0.307,1.426,0.456,2.234,0.456c1.288,0,2.372-0.229,3.257-0.681c0.881-0.456,1.676-1.125,2.386-2.01L546.279,205.575z
		 M543.739,198.343c-0.05-1.518-0.543-2.728-1.479-3.637c-0.933-0.908-2.222-1.366-3.858-1.366c-1.644,0-2.969,0.458-3.978,1.366
		c-1.01,0.909-1.618,2.119-1.817,3.637H543.739z"/>
	<path fill="#545554" d="M551.503,195.272c0-0.808-0.022-1.565-0.073-2.271c-0.053-0.706-0.077-1.351-0.077-1.932h2.801
		c0,0.481,0.017,0.961,0.04,1.439c0.024,0.479,0.037,0.974,0.037,1.475h0.076c0.202-0.428,0.484-0.845,0.853-1.247
		c0.366-0.403,0.802-0.764,1.306-1.079c0.506-0.316,1.072-0.568,1.705-0.758c0.633-0.19,1.312-0.283,2.045-0.283
		c1.158,0,2.165,0.177,3.009,0.53c0.848,0.354,1.548,0.844,2.104,1.477c0.557,0.632,0.968,1.396,1.23,2.29
		c0.266,0.896,0.397,1.877,0.397,2.938v10.943H564V198.15c0-1.487-0.327-2.662-0.982-3.521c-0.656-0.856-1.679-1.288-3.065-1.288
		c-0.964,0-1.787,0.165-2.48,0.494c-0.695,0.329-1.265,0.794-1.704,1.4c-0.444,0.607-0.771,1.326-0.985,2.158
		c-0.213,0.835-0.32,1.757-0.32,2.765v8.636h-2.956v-13.521H551.503z"/>
	<path fill="#545554" d="M582.253,193.567h-5.227v8.863c0,0.579,0.012,1.116,0.041,1.609c0.023,0.493,0.123,0.922,0.302,1.288
		c0.175,0.362,0.439,0.655,0.795,0.868c0.354,0.217,0.855,0.324,1.513,0.324c0.434,0,0.872-0.052,1.328-0.149
		c0.454-0.104,0.883-0.252,1.285-0.456l0.114,2.688c-0.505,0.229-1.066,0.392-1.687,0.491c-0.614,0.101-1.205,0.15-1.76,0.15
		c-1.061,0-1.909-0.14-2.536-0.414c-0.633-0.277-1.125-0.671-1.479-1.177c-0.353-0.502-0.586-1.128-0.699-1.875
		c-0.114-0.74-0.17-1.57-0.17-2.479v-9.734h-3.863v-2.498h3.863v-5.035h2.952v5.035h5.227V193.567L582.253,193.567z"/>
	<path fill="#545554" d="M585.508,184.14c0-0.582,0.209-1.088,0.628-1.516c0.414-0.429,0.924-0.645,1.533-0.645
		c0.604,0,1.114,0.216,1.53,0.645c0.418,0.428,0.627,0.934,0.627,1.516c0,0.63-0.202,1.147-0.607,1.551
		c-0.403,0.405-0.922,0.606-1.55,0.606c-0.633,0-1.149-0.201-1.555-0.606C585.711,185.287,585.508,184.77,585.508,184.14z
		 M586.189,191.069h2.953v17.725h-2.953V191.069z"/>
</g>
</svg>
